…
## Topic Modeling

### Word Ratios

If we're creating topic models, we would expect natural topics to arise between replies and non-replies. We can first look at log ratios of word frequencies between replies and non-replies to identify words that are distinctive of replies and non-replies.


```
## # A tibble: 6,825 x 4
##    word       no_reply     reply   logratio
##    <chr>         <dbl>     <dbl>      <dbl>
##  1 bear      0.0000893 0.0000893  0.0000620
##  2 addition  0.0000920 0.0000921  0.00102  
##  3 apple     0.000200  0.000201   0.00358  
##  4 mark      0.000428  0.000430   0.00413  
##  5 price     0.000279  0.000277  -0.00433  
##  6 appears   0.0000760 0.0000763  0.00461  
##  7 guys      0.000277  0.000279   0.00471  
##  8 standards 0.0000693 0.0000696  0.00471  
##  9 choose    0.000299  0.000301   0.00673  
## 10 figure    0.0000706 0.0000700 -0.00870  
## # ... with 6,815 more rows
```
…
